<?xml version="1.0" standalone="no"?>
<!DOCTYPE svg PUBLIC "-//W3C//DTD SVG 20010904//EN"
 "http://www.w3.org/TR/2001/REC-SVG-20010904/DTD/svg10.dtd">
<svg version="1.0" xmlns="http://www.w3.org/2000/svg"
 width="678.000000pt" height="1280.000000pt" viewBox="0 0 678.000000 1280.000000"
 preserveAspectRatio="xMidYMid meet">
<metadata>
Created by potrace 1.15, written by Peter Selinger 2001-2017
</metadata>
<g transform="translate(0.000000,1280.000000) scale(0.100000,-0.100000)"
fill="#f44336" stroke="none">
<path d="M3145 12793 c-22 -2 -98 -10 -170 -19 -1172 -142 -2197 -909 -2680
-2006 -298 -676 -370 -1423 -209 -2151 108 -490 327 -955 637 -1357 l66 -85
-24 -25 c-30 -31 -55 -90 -55 -128 0 -16 93 -240 207 -498 l208 -469 5 -805 5
-805 28 -89 c33 -105 102 -243 163 -327 24 -32 128 -160 231 -284 242 -291
285 -352 308 -447 45 -188 126 -290 248 -312 l37 -7 0 -84 c0 -82 -1 -84 -27
-97 -41 -19 -67 -78 -58 -133 7 -51 45 -102 78 -107 19 -3 22 -10 25 -60 3
-53 1 -57 -24 -70 -88 -43 -82 -211 9 -256 25 -12 27 -18 27 -72 0 -55 -2 -60
-25 -66 -33 -8 -72 -56 -85 -104 -19 -71 16 -146 77 -164 18 -6 22 -15 25 -71
3 -63 2 -65 -23 -70 -32 -7 -64 -39 -78 -78 -23 -59 20 -137 81 -152 27 -7 28
-9 28 -76 0 -63 -2 -69 -21 -69 -12 0 -36 -15 -55 -34 -37 -37 -45 -82 -23
-130 11 -23 62 -56 88 -56 6 0 11 -11 11 -24 0 -32 17 -76 39 -101 9 -11 23
-42 30 -70 20 -81 56 -151 107 -205 59 -63 97 -87 187 -115 64 -21 72 -26 83
-57 19 -56 73 -158 129 -245 l53 -81 79 -7 c100 -8 138 -17 243 -54 264 -93
521 -92 805 4 72 24 154 47 183 51 41 5 58 13 77 36 41 49 107 165 141 251
l33 81 73 26 c40 14 90 36 110 48 79 49 151 157 179 268 7 28 22 57 36 67 21
17 23 26 23 120 l0 102 34 27 c46 37 86 120 86 178 0 53 -16 74 -67 85 -33 7
-33 7 -33 65 0 50 3 61 21 70 33 18 59 87 59 158 0 74 -19 119 -55 128 -22 5
-25 12 -25 48 0 34 6 48 31 72 97 92 96 241 -2 261 -27 5 -29 9 -29 48 0 32 6
47 26 66 71 65 99 215 49 264 -13 14 -34 25 -47 25 l-23 0 3 199 3 199 57 7
c134 17 181 82 189 265 5 122 21 180 66 243 18 24 127 147 242 273 244 265
276 305 321 399 66 140 64 99 64 1064 l0 874 200 437 c110 241 200 448 200
460 0 53 -73 156 -121 172 -8 3 9 33 49 85 358 471 585 1034 669 1658 24 183
24 657 0 839 -110 811 -466 1523 -1034 2066 -643 615 -1474 946 -2353 938
-102 -1 -203 -3 -225 -5z"/>
</g>
</svg>
