<?xml version="1.0" encoding="UTF-8" standalone="no"?>
<!-- Generator: Adobe Illustrator 15.0.2, SVG Export Plug-In . SVG Version: 6.00 Build 0)  -->

<svg
   xmlns:dc="http://purl.org/dc/elements/1.1/"
   xmlns:cc="http://creativecommons.org/ns#"
   xmlns:rdf="http://www.w3.org/1999/02/22-rdf-syntax-ns#"
   xmlns:svg="http://www.w3.org/2000/svg"
   xmlns="http://www.w3.org/2000/svg"
   xmlns:sodipodi="http://sodipodi.sourceforge.net/DTD/sodipodi-0.dtd"
   xmlns:inkscape="http://www.inkscape.org/namespaces/inkscape"
   version="1.1"
   id="Layer_1"
   x="0px"
   y="0px"
   width="351px"
   height="351px"
   viewBox="0 0 351 351"
   enable-background="new 0 0 351 351"
   xml:space="preserve"
   sodipodi:docname="Anarchist_black_cat-right.svg"
   inkscape:version="0.92.4 (f8dce91, 2019-08-02)"><metadata
   id="metadata4707"><rdf:RDF><cc:Work
       rdf:about=""><dc:format>image/svg+xml</dc:format><dc:type
         rdf:resource="http://purl.org/dc/dcmitype/StillImage" /><dc:title></dc:title></cc:Work></rdf:RDF></metadata><defs
   id="defs4705" /><sodipodi:namedview
   pagecolor="#ffffff"
   bordercolor="#666666"
   borderopacity="1"
   objecttolerance="10"
   gridtolerance="10"
   guidetolerance="10"
   inkscape:pageopacity="0"
   inkscape:pageshadow="2"
   inkscape:window-width="1629"
   inkscape:window-height="995"
   id="namedview4703"
   showgrid="false"
   inkscape:zoom="0.67236467"
   inkscape:cx="-65.440678"
   inkscape:cy="175.5"
   inkscape:window-x="51"
   inkscape:window-y="27"
   inkscape:window-maximized="1"
   inkscape:current-layer="Layer_1" />
<g
   id="g4700"
   transform="matrix(-1,0,0,1,357.56263,0)"
   style="fill:#ffffff">
	<path
   d="m 330.708,10.255 c 2.476,11.318 -6.894,19.167 0,26.014 -1.602,4.311 -6.469,5.355 -9.46,8.277 0.948,8.043 -3.396,10.793 -8.277,13.007 -0.004,6.499 -2.38,10.626 -5.912,13.598 0.46,15.042 -6.648,22.518 -14.188,29.561 3.838,11.882 11.271,21.742 15.371,33.699 20.491,59.757 -5.872,121.849 -38.429,153.125 -11.957,11.487 -30.301,21.418 -46.115,28.97 -0.502,4.621 -1.565,8.682 -1.183,14.189 -0.614,3.129 -5.135,2.354 -5.912,5.32 -0.677,3.259 4.615,3.636 2.956,5.912 -3.445,-0.077 -7.239,1.924 -11.824,2.365 -1.248,-2.891 -0.031,-8.245 -3.547,-8.868 -2.892,1.769 0.27,5.97 -0.592,9.46 -5.579,-2.651 -6.27,-12.548 -4.138,-19.511 -3.219,-6.312 -7.452,1.159 -13.007,2.365 -3.94,0.855 -5.086,-2.275 -8.277,0.591 -6.558,-1.331 -12.548,-3.313 -22.466,-4.139 -6.155,-0.512 -13.167,0.154 -17.736,-1.182 -3.868,-1.132 -6.846,-4.769 -10.051,-4.73 -3.043,0.036 -7.148,2.831 -8.868,4.139 -2.922,-3.07 -4.958,-1.346 -7.095,-0.591 -4.826,-0.692 -3.495,-7.542 -5.321,-11.233 C 75.008,293.747 50.971,269.141 36.873,233.144 29.796,215.073 24.977,197.415 26.822,171.658 31.148,111.269 61.965,67.976 107.228,45.729 c 15.249,-7.496 34.476,-13.855 53.209,-15.372 19.043,-1.541 40.258,4.655 54.392,9.459 6.073,2.064 13.912,4.184 20.692,7.686 4.959,2.561 13.232,10.706 17.736,10.642 5.597,-0.079 5.806,-5.707 8.869,-9.459 3.112,-0.354 5.079,0.438 7.686,0.591 0.561,-18.556 14.879,-23.353 27.787,-29.561 2.729,-0.364 3.402,1.328 5.912,1.183 2.537,-1.01 2.675,-4.42 4.139,-6.503 5.956,-2.748 14.597,-5.858 23.058,-4.14 z M 206.553,39.816 c -5.826,-1.57 -12.218,-3.573 -17.737,-4.139 -67.337,-6.897 -111.138,28.558 -137.753,68.581 -3.548,5.335 -7.986,10.622 -10.051,15.963 -6.814,17.633 -11.705,41.506 -11.233,65.034 0.577,28.806 11.985,57.45 24.831,75.085 9.004,12.36 22.873,28.748 36.655,37.837 3.835,2.529 12.806,9.259 16.554,8.869 3.507,-0.365 5.622,-5.14 9.459,-7.095 4.24,-2.161 7.58,-2.18 11.233,-4.73 0.052,-26.459 -3.005,-49.81 -7.095,-72.128 3.717,-6.595 0.644,-14.639 -6.503,-15.372 -1.524,-1.894 -1.419,-6.785 -5.912,-6.503 -9.165,0.575 -2.563,23.425 -12.416,26.014 -7.948,2.089 -18.936,-7.964 -12.416,-14.189 1.832,5.908 11.655,3.962 10.051,-3.547 6.719,-0.075 11.864,-12.003 6.503,-16.555 -3.744,1.231 -2.886,3.948 -5.321,5.912 -3.493,2.818 -7.435,1.621 -11.825,2.956 -2.646,0.806 -4.817,3.834 -7.686,4.139 -10.222,1.087 -13.747,-12.925 -24.24,-11.232 -9.03,-5.715 2.024,-15.217 0,-25.423 -0.825,-4.156 -4.691,-7.875 -5.321,-13.007 -0.917,-7.477 -0.674,-14.059 4.139,-18.919 5.919,2.949 5.324,12.413 11.824,14.781 4.602,-2.729 6.058,-6.061 11.233,-7.686 5.392,-1.693 12.128,0.038 17.145,-2.365 10.487,-5.023 6.5,-22.162 18.328,-26.014 0.983,5.171 2.478,12.237 2.956,18.919 0.473,6.599 -1.6,13.367 1.183,17.737 7.632,-6.163 8.366,-19.224 10.051,-31.334 1.207,-1.946 3.75,-2.556 5.321,-4.139 6.078,-25.06 29.1,-33.174 43.75,-49.662 0.812,9.859 8.555,6.199 13.598,2.365 5.383,4.54 9.215,-1.876 15.963,-1.183 1.181,13.403 11.723,17.444 21.875,21.875 2.571,5.312 2.547,13.219 2.365,21.284 2.723,4.175 4.201,9.593 6.503,14.189 6.616,-3.162 2.518,-10.944 2.956,-17.145 0.218,-3.078 2.663,-6.283 2.956,-9.459 0.512,-5.534 -2.288,-10.911 -1.773,-16.554 2.219,-1.082 3.859,1.007 7.095,0.591 0.983,-8.279 5.228,-13.298 6.504,-21.284 C 239.271,51.871 223.745,44.448 206.553,39.816 Z m 75.084,229.392 c 19.711,-22.994 30.776,-55.997 28.97,-95.777 -1.195,-26.305 -6.625,-53.327 -22.467,-66.216 -2.583,4.905 -9.564,5.413 -11.232,11.233 -2.872,0.163 -5.484,-1.604 -7.095,0.591 10.97,11.884 -9.35,23.764 -17.146,27.787 -1.496,5.42 -10.816,14.378 -11.824,20.102 -0.297,1.688 1.341,3.589 1.183,5.321 -0.272,2.972 -3.83,5.133 -4.139,7.686 -0.705,5.842 3.596,9.298 7.686,13.007 -5.155,3.318 -8.849,8.1 -11.232,14.189 -0.816,0.664 0.674,4.021 1.182,5.321 -3.917,1.947 -3.938,9.494 -6.503,14.188 -1.34,2.453 -4.468,3.24 -4.729,5.912 -0.235,2.404 2.447,4.139 2.364,6.504 -5.324,2.989 -4.793,8.852 0.592,11.824 -9.009,6.989 3.647,13.023 4.729,18.328 0.753,3.688 -1.467,6.001 -2.365,9.459 -2.486,9.572 -4.345,21.601 -4.729,31.926 22.651,-5.971 41.253,-23.302 56.755,-41.385 z M 104.272,163.971 c -0.301,-3.885 -7.104,-4.322 -10.642,-2.956 -4.249,1.64 -9.881,8.894 -8.277,13.598 3.558,-2.051 19.305,-5.649 18.919,-10.642 z m -33.7,13.598 c -0.568,-5.735 -13.138,-7.291 -13.006,1.773 3.153,4.604 13.685,5.076 13.006,-1.773 z m 24.832,4.139 c -7.013,-0.412 -6.882,9.646 -14.781,11.232 -4.994,1.003 -7.256,-2.151 -13.007,0.592 -1.187,5.226 3.582,9.524 8.869,8.276 3.276,-0.773 2.864,-4.471 5.912,-5.32 9.407,10.059 26.48,-13.99 13.007,-14.78 z m -20.102,6.503 c 1.803,3.658 6.778,1.69 9.459,0 0,-1.576 0,-3.153 0,-4.729 -4.228,0.5 -8.881,0.577 -9.459,4.729 z m 88.683,63.852 c -5.956,4.327 -5.458,13.712 -6.503,24.831 -0.609,6.481 -2.792,14.199 -2.365,18.327 0.248,2.389 2.461,4.221 2.956,7.095 0.805,4.668 -0.254,9.232 0,13.007 -2.855,0.247 -4.25,-3.293 -7.094,-1.183 -2.364,8.912 9.712,8.387 17.145,9.46 4.918,-3.556 4.532,-12.416 10.051,-15.372 4.185,0.243 7.722,-0.161 10.642,-1.182 5.389,-17.637 4.948,-35.49 0.592,-51.437 -2.383,-8.722 -8.005,-15.861 -10.643,-23.648 -3.277,-9.678 -5.125,-18.011 -7.094,-27.787 -0.591,0 -1.182,0 -1.773,0 0.957,18.481 -9.129,30.943 -5.914,47.889 z M 142.11,289.9 c 0.034,-7.947 2.917,-17.638 3.547,-27.787 1.052,-16.935 5.393,-40.567 -1.182,-52.618 -0.591,0 -1.183,0 -1.774,0 -2.877,8.809 -5.782,23.963 -4.729,35.473 0.329,3.596 1.829,6.92 1.773,10.642 -0.254,16.99 -3.058,33.084 -2.365,47.889 2.698,0.53 3.351,-0.984 5.321,-1.183 2.165,-3.871 -0.61,-8.027 -0.591,-12.416 z M 90.083,221.319 c 3.945,3.889 11.479,-2.239 7.095,-6.504 -2.426,2.108 -6.676,2.391 -7.095,6.504 z m 117.061,47.889 c 0.475,4.012 -1.459,9.331 -2.956,14.78 -2.424,8.818 -4.642,15.888 -5.321,23.648 -0.805,9.191 -3.838,8.706 -7.095,13.598 7.573,0.655 17.219,-1.147 23.058,-4.138 2.107,-22.919 -0.462,-51.084 -11.824,-64.443 -0.395,0 -0.788,0 -1.183,0 -1.282,5.713 4.585,10.351 5.321,16.555 z m -80.997,43.158 c -0.352,3.913 3.396,5.487 6.503,4.139 2.092,-4.049 -3.469,-6.736 -6.503,-4.139 z m 18.328,7.686 c 1.893,1.053 2.983,1.147 5.321,0.592 0.857,-4.664 -6.416,-6.892 -5.321,-0.592 z"
   id="path4694"
   inkscape:connector-curvature="0"
   style="clip-rule:evenodd;fill-rule:evenodd;fill:#ffffff" />
	<path
   d="m 58.157,200.035 c -0.22,2.389 2.022,2.314 2.957,3.548 -3.86,4.811 -11.677,5.666 -17.737,8.276 1.129,-4.98 9.189,-3.029 10.642,-7.686 -1.23,-2.837 -6.08,1.944 -8.277,0 3.019,-2.498 7.249,-3.785 12.415,-4.138 z"
   id="path4696"
   inkscape:connector-curvature="0"
   style="clip-rule:evenodd;fill-rule:evenodd;fill:#ffffff" />
	<path
   d="m 64.66,205.947 c 5.326,-0.462 6.489,5.67 4.139,9.46 -2.397,-0.165 -2.559,-2.565 -4.139,-3.548 -3.192,1.341 -2.172,6.894 -6.503,7.095 -0.819,-5.035 3.177,-10.166 6.503,-13.007 z"
   id="path4698"
   inkscape:connector-curvature="0"
   style="clip-rule:evenodd;fill-rule:evenodd;fill:#ffffff" />
</g>
</svg>